%YAML 1.1
%TAG !u! tag:unity3d.com,2011:
--- !u!114 &11400000
MonoBehaviour:
  m_ObjectHideFlags: 0
  m_PrefabParentObject: {fileID: 0}
  m_PrefabInternal: {fileID: 0}
  m_GameObject: {fileID: 0}
  m_Enabled: 1
  m_EditorHideFlags: 0
  m_Script: {fileID: 11500000, guid: 656b2b4bf39b24dbd8f4db941b7edfbd, type: 3}
  m_Name: Asset_TweenData_MovePanel
  m_EditorClassIdentifier: 
  duration: 1
  ease: 34
  animationCurve:
    serializedVersion: 2
    m_Curve:
    - time: 0
      value: 0
      inSlope: 0
      outSlope: 0
      tangentMode: 0
    - time: 1
      value: 1
      inSlope: 0
      outSlope: 0
      tangentMode: 0
    m_PreInfinity: 2
    m_PostInfinity: 2
  propertyType: 3
  FromColor: {r: 1, g: 1, b: 1, a: 1}
  ToColor: {r: 1, g: 1, b: 1, a: 1}
  FromFloat: 0
  ToFloat: 0
  FromVector3: {x: 0, y: 0, z: 0}
  ToVector3: {x: 0, y: 0, z: 0}
  boolean: 0
